{
  "databaseName": "{{$global.env.OPENCART_DATABASE_NAME}}",
  "databasePassword": "{{$global.env.OPENCART_DATABASE_PASSWORD}}",
  "databaseServerHost": "{{$global.env.MARIADB_HOST}}",
  "databaseServerPort": "{{$global.env.MARIADB_PORT_NUMBER}}",
  "databaseUser": "{{$global.env.OPENCART_DATABASE_USER}}",
  "email": "{{$global.env.OPENCART_EMAIL}}",
  "host": "{{$global.env.OPENCART_HOST}}",
  "password": "{{$global.env.OPENCART_PASSWORD}}",
  "smtpHost": "{{$global.env.SMTP_HOST}}",
  "smtpPassword": "{{$global.env.SMTP_PASSWORD}}",
  "smtpPort": "{{$global.env.SMTP_PORT}}",
  "smtpProtocol": "{{$global.env.SMTP_PROTOCOL}}",
  "smtpUser": "{{$global.env.SMTP_USER}}",
  "username": "{{$global.env.OPENCART_USERNAME}}"
}